<?xml version="1.0" encoding="utf-8"?>
<!-- Generator: Adobe Illustrator 18.0.0, SVG Export Plug-In . SVG Version: 6.00 Build 0)  -->
<!DOCTYPE svg PUBLIC "-//W3C//DTD SVG 1.1//EN" "http://www.w3.org/Graphics/SVG/1.1/DTD/svg11.dtd">
<svg version="1.1" id="Layer_1" xmlns="http://www.w3.org/2000/svg" xmlns:xlink="http://www.w3.org/1999/xlink" x="0px" y="0px"
	 viewBox="0 2271.1 14173.2 7277.1" enable-background="new 0 2271.1 14173.2 7277.1" xml:space="preserve">
<g>
	<g>
		<path fill="#FFFFFF" d="M1707,4919.7c7.2,111.4-122.2,330.6-233.6,337.8c-125.8-97-230-133-363-133
			c-283.9,0-488.7,244.4-488.7,592.9c0,398.9,183.3,603.7,488.7,603.7c111.4,0,233.6-18,363-75.5c79.1,46.7,143.7,305.5,89.8,398.9
			c-172.5,86.2-395.3,125.8-607.3,125.8C305.5,6770.4,0,6349.9,0,5778.5c0-776.2,546.2-1110.4,1042.1-1110.4
			C1358.4,4668.1,1570.4,4761.5,1707,4919.7z"/>
		<path fill="#FFFFFF" d="M3083.3,4783.1c-53.9,747.5-837.3,93.4-909.2,855.3c111.4-179.7,273.1-283.9,474.4-283.9
			c352.2,0,596.5,222.8,596.5,632.5c0,528.3-341.4,772.6-801.4,772.6c-521.1,0-801.4-244.4-801.4-858.9
			c3.6-1455.4,1099.6-1042.1,1290.1-1275.7C2989.9,4643,3069,4707.6,3083.3,4783.1z M2192.1,5843.2
			c-10.8,456.4,57.5,589.4,244.4,589.4c158.1,0,240.8-158.1,240.8-413.3c0-215.6-82.7-298.3-190.5-298.3
			C2371.8,5717.4,2278.4,5767.8,2192.1,5843.2z"/>
		<path fill="#FFFFFF" d="M4262,6360.7c143.7,0,327-43.1,460-136.6c71.9,35.9,111.4,208.4,68.3,323.4
			c-161.7,136.6-452.8,208.4-722.3,197.6c-427.6-18-751.1-244.4-751.1-743.9c0-474.4,337.8-769,858.9-769
			c499.5,0,697.2,201.2,697.2,474.4c0,413.3-499.5,517.5-973.9,380.9C3888.3,6267.3,4028.4,6360.7,4262,6360.7z M4301.6,5685.1
			c0-93.4-43.1-172.5-143.7-172.5c-201.2,0-262.3,190.5-273.1,380.9C4060.8,5911.5,4301.6,5875.6,4301.6,5685.1z"/>
		<path fill="#FFFFFF" d="M5577.3,5476.7c107.8-129.4,244.4-248,485.1-248c258.7,0,506.7,158.1,506.7,657.6
			c0,743.9-460,966.7-1031.4,783.4l-35.9,330.6c-111.4,53.9-460,53.9-557,18c39.5-697.2,115-1038.6,75.5-1742.9
			c104.2-64.7,420.5-64.7,531.9-32.3L5577.3,5476.7z M5548.5,6339.1c309.1,158.1,438.4-61.1,438.4-395.3
			c0-208.4-57.5-294.7-190.5-294.7c-86.2,0-161.7,43.1-226.4,129.4L5548.5,6339.1z"/>
		<path fill="#FFFFFF" d="M6680.5,6702.1l71.9-1394.3c39.5-64.7,495.9-104.2,549.8-61.1l-53.9,603.7l143.7-35.9l276.7-557
			c111.4-35.9,513.9-3.6,553.4,57.5l-398.9,621.7c136.6,334.2,237.2,442,327,442c28.7,0,61.1-7.2,89.8-21.6
			c57.5,28.7,79.1,176.1,50.3,273.1c-75.5,89.8-201.2,129.4-319.8,129.4c-294.7,0-470.8-190.5-632.5-664.8l-107.8,7.2l3.6,585.8
			C7198,6745.2,6738,6759.6,6680.5,6702.1z"/>
		<path fill="#FFFFFF" d="M9929.2,5954.6c0,474.4-276.7,808.6-822.9,808.6c-582.2-3.6-797.8-384.5-797.8-729.5
			c0-557,398.9-805,822.9-805C9695.6,5225.1,9929.2,5545,9929.2,5954.6z M9102.6,6436.2c208.4,0,255.1-190.5,255.1-488.7
			c0-255.1-35.9-388.1-219.2-388.1c-168.9,0-258.7,143.7-258.7,478C8879.8,6270.9,8923,6436.2,9102.6,6436.2z"/>
		<path fill="#FFFFFF" d="M11399,6015.7c-133-50.3-262.3-61.1-380.9-32.3c-7.2,57.5-14.4,111.4-25.2,161.7
			c104.2-46.7,230-46.7,355.8,3.6c50.3,21.6,97,43.1,140.2,71.9c18-43.1,32.3-89.8,46.7-140.2
			C11492.4,6058.8,11449.3,6037.3,11399,6015.7z M11154.6,5897.1c89.8,0,179.7,18,269.5,53.9c43.1,18,86.2,35.9,125.8,57.5
			c28.8-133,43.1-276.7,43.1-431.2c0-610.9-280.3-948.7-797.8-948.7c-323.4,0-610.9,133-725.9,265.9
			c-7.2,118.6,111.4,337.8,262.3,377.3c100.6-118.6,258.7-233.6,402.5-233.6c176.1,0,280.3,111.4,301.9,424
			c-100.6-68.3-222.8-104.2-366.6-104.2c-395.3,0-679.2,301.9-679.2,715.1c0,309.1,212,632.5,632.5,682.8
			c28.7,3.6,57.5,7.2,89.8,7.2c10.8,0,18,0,28.7,0c53.9,0,100.6-3.6,150.9-14.4c28.8-3.6,57.5-10.8,86.2-21.6
			c219.2-64.7,377.3-222.8,481.5-445.6c-39.5-28.7-86.2-53.9-136.6-71.9c-133-53.9-262.3-43.1-359.4,28.7
			c-28.7,75.5-64.7,129.4-111.4,158.1c-25.2,14.4-50.3,21.6-79.1,25.2c-3.6,0-7.2,0-10.8,0c-50.3,0-89.8-14.4-122.2-50.3
			c-18-21.6-35.9-50.3-46.7-89.8c-18-57.5-28.7-133-28.7-233.6c0-265.9,111.4-373.7,258.7-373.7c57.5,0,140.2,14.4,219.2,46.7
			c-3.6,64.7-7.2,125.8-10.8,183.3C11068.3,5900.7,11111.5,5897.1,11154.6,5897.1z"/>
	</g>
</g>
<g id="Your_Icon_1_">
	<g>
		<polygon fill="#FFFFFF" points="14072.6,8182.7 12904.7,9347 11316.3,7758.6 11280.4,7923.9 12904.7,9548.2 14173.2,8283.3 		"/>
		<path fill="#FFFFFF" d="M12548.9,6256.5l-668.4,143.7c-89.8-150.9-230-294.7-449.2-380.9c-222.8-86.2-438.4-57.5-600.1,82.7
			c-143.7,125.8-208.4,319.8-161.7,499.5c32.3,129.4,147.3,355.8,553.4,452.8l32.3-140.2c-248-57.5-406.1-183.3-445.6-348.6
			c-32.3-129.4,14.4-265.9,118.6-359.4c118.6-104.2,283.9-125.8,452.8-57.5c521.1,204.8,524.7,808.6,524.7,833.7
			c0,39.5,32.3,82.7,71.9,82.7c39.5,0,71.9-21.6,71.9-57.5h7.2v-25.2l0,0l0,0c0-14.4-3.6-97-28.7-215.6
			c35.9,7.2,68.3,25.2,93.4,50.3c75.5,75.5,71.9,194.1,0,269.5c-75.5,75.5-197.6,75.5-269.5,0c-61.1-61.1-71.9-147.3-35.9-219.2
			c-25.2-118.6-75.5-280.3-186.9-416.9l-118.6,25.2l-222.8,1042.1l1624.3,1624.3l1265-1265L12548.9,6256.5z"/>
	</g>
</g>
</svg>
