<?xml version="1.0" encoding="utf-8"?>
<!-- Generator: Adobe Illustrator 18.0.0, SVG Export Plug-In . SVG Version: 6.00 Build 0)  -->
<!DOCTYPE svg PUBLIC "-//W3C//DTD SVG 1.1//EN" "http://www.w3.org/Graphics/SVG/1.1/DTD/svg11.dtd">
<svg version="1.1" id="Слой_1" xmlns="http://www.w3.org/2000/svg" xmlns:xlink="http://www.w3.org/1999/xlink" x="0px" y="0px"
	 viewBox="0 0 80 72" enable-background="new 0 0 80 72" xml:space="preserve">
<g>
	<g opacity="0.3">
		<linearGradient id="SVGID_1_" gradientUnits="userSpaceOnUse" x1="29.4207" y1="44.5317" x2="40.8085" y2="33.144">
			<stop  offset="0" style="stop-color:#5D8BC5"/>
			<stop  offset="1" style="stop-color:#70A59E"/>
		</linearGradient>
		<path fill="url(#SVGID_1_)" d="M35.1,30.1c-3.5,0-6.3,2.6-6.3,5.9c0,3.9,2.7,4.8,2.7,7.1c0,0.6,0.4,1.1,1.1,1.5
			c-0.1,0.1-0.2,0.2-0.2,0.4c0,0.2,0.1,0.3,0.4,0.5c-0.2,0.1-0.3,0.3-0.3,0.5c0,0.2,0.1,0.3,0.4,0.5c-0.2,0.1-0.4,0.3-0.4,0.5
			c0,0.2,0.2,0.4,0.5,0.5c-0.1,0.1-0.2,0.2-0.2,0.4c0,0.4,0.6,0.7,1.5,0.9c0.2,0.3,0.5,0.5,0.8,0.5c0.4,0,0.7-0.2,0.8-0.5
			c0.9-0.1,1.5-0.5,1.5-0.9c0-0.1-0.1-0.3-0.2-0.4c0.3-0.2,0.5-0.3,0.5-0.6c0-0.2-0.1-0.3-0.4-0.5c0.2-0.1,0.4-0.3,0.4-0.5
			c0-0.2-0.1-0.3-0.4-0.5c0.2-0.1,0.4-0.3,0.4-0.5c0-0.1-0.1-0.3-0.2-0.4c0.6-0.4,1.1-0.9,1.1-1.4c0-2.3,2.7-3.2,2.7-7.1
			C41.4,32.8,38.6,30.1,35.1,30.1z M38.4,39.7C37.8,40.6,37,41.6,37,43c-0.2,0.2-1,0.6-1.9,0.6c-0.9,0-1.7-0.4-1.9-0.6
			c0-1.4-0.8-2.4-1.4-3.3c-0.7-1-1.4-2-1.4-3.6c0-2.4,2.1-4.3,4.6-4.3c2.6,0,4.6,1.9,4.6,4.3C39.7,37.7,39.1,38.7,38.4,39.7z"/>
		<linearGradient id="SVGID_2_" gradientUnits="userSpaceOnUse" x1="33.9565" y1="27.2131" x2="36.2466" y2="24.923">
			<stop  offset="0" style="stop-color:#5D8BC5"/>
			<stop  offset="1" style="stop-color:#70A59E"/>
		</linearGradient>
		<path fill="url(#SVGID_2_)" d="M35.1,28.1c0.5,0,0.8-0.5,0.8-1.1v-1.9c0-0.6-0.4-1.1-0.8-1.1c-0.5,0-0.8,0.5-0.8,1.1V27
			C34.3,27.6,34.7,28.1,35.1,28.1z"/>
		<linearGradient id="SVGID_3_" gradientUnits="userSpaceOnUse" x1="29.1188" y1="28.199" x2="30.6321" y2="26.6857">
			<stop  offset="0" style="stop-color:#5D8BC5"/>
			<stop  offset="1" style="stop-color:#70A59E"/>
		</linearGradient>
		<path fill="url(#SVGID_3_)" d="M30.9,29.2c0.4-0.2,0.5-0.8,0.2-1.3l-1-1.6c-0.3-0.5-0.9-0.7-1.3-0.5c-0.4,0.2-0.5,0.8-0.2,1.3
			l1,1.6C29.9,29.2,30.5,29.4,30.9,29.2z"/>
		<linearGradient id="SVGID_4_" gradientUnits="userSpaceOnUse" x1="25.2791" y1="31.9681" x2="26.8197" y2="30.4275">
			<stop  offset="0" style="stop-color:#5D8BC5"/>
			<stop  offset="1" style="stop-color:#70A59E"/>
		</linearGradient>
		<path fill="url(#SVGID_4_)" d="M27.3,31L25.6,30c-0.5-0.3-1.1-0.2-1.3,0.2c-0.2,0.4,0,0.9,0.5,1.2l1.7,0.9
			c0.5,0.3,1.1,0.2,1.3-0.2C28,31.8,27.8,31.3,27.3,31z"/>
		<linearGradient id="SVGID_5_" gradientUnits="userSpaceOnUse" x1="43.3833" y1="42.2282" x2="44.9245" y2="40.687">
			<stop  offset="0" style="stop-color:#5D8BC5"/>
			<stop  offset="1" style="stop-color:#70A59E"/>
		</linearGradient>
		<path fill="url(#SVGID_5_)" d="M45.4,41.2l-1.7-0.9c-0.5-0.3-1.1-0.2-1.3,0.2c-0.2,0.4,0,0.9,0.5,1.2l1.7,0.9
			c0.5,0.3,1.1,0.2,1.3-0.2C46.2,42.1,45.9,41.5,45.4,41.2z"/>
		<linearGradient id="SVGID_6_" gradientUnits="userSpaceOnUse" x1="23.4924" y1="37.4844" x2="25.8064" y2="35.1703">
			<stop  offset="0" style="stop-color:#5D8BC5"/>
			<stop  offset="1" style="stop-color:#70A59E"/>
		</linearGradient>
		<path fill="url(#SVGID_6_)" d="M26.7,36.3c0-0.4-0.5-0.8-1.1-0.8h-1.9c-0.6,0-1.1,0.4-1.1,0.8c0,0.4,0.5,0.8,1.1,0.8h1.9
			C26.2,37.1,26.7,36.8,26.7,36.3z"/>
		<linearGradient id="SVGID_7_" gradientUnits="userSpaceOnUse" x1="44.3967" y1="37.4844" x2="46.7107" y2="35.1703">
			<stop  offset="0" style="stop-color:#5D8BC5"/>
			<stop  offset="1" style="stop-color:#70A59E"/>
		</linearGradient>
		<path fill="url(#SVGID_7_)" d="M46.5,35.5h-1.9c-0.6,0-1.1,0.4-1.1,0.8c0,0.4,0.5,0.8,1.1,0.8h1.9c0.6,0,1.1-0.4,1.1-0.8
			C47.6,35.9,47.1,35.5,46.5,35.5z"/>
		<linearGradient id="SVGID_8_" gradientUnits="userSpaceOnUse" x1="24.6446" y1="42.8618" x2="27.4532" y2="40.0531">
			<stop  offset="0" style="stop-color:#5D8BC5"/>
			<stop  offset="1" style="stop-color:#70A59E"/>
		</linearGradient>
		<path fill="url(#SVGID_8_)" d="M26.5,40.3l-1.7,0.9c-0.5,0.3-0.8,0.8-0.5,1.2c0.2,0.4,0.8,0.5,1.3,0.2l1.7-0.9
			c0.5-0.3,0.8-0.8,0.5-1.2C27.6,40.1,27,40,26.5,40.3z"/>
		<linearGradient id="SVGID_9_" gradientUnits="userSpaceOnUse" x1="42.7498" y1="32.6019" x2="45.5582" y2="29.7935">
			<stop  offset="0" style="stop-color:#5D8BC5"/>
			<stop  offset="1" style="stop-color:#70A59E"/>
		</linearGradient>
		<path fill="url(#SVGID_9_)" d="M43.7,32.4l1.7-0.9c0.5-0.3,0.8-0.8,0.5-1.2c-0.2-0.4-0.8-0.5-1.3-0.2L42.9,31
			c-0.5,0.3-0.8,0.8-0.5,1.2C42.6,32.6,43.2,32.7,43.7,32.4z"/>
		<linearGradient id="SVGID_10_" gradientUnits="userSpaceOnUse" x1="38.9279" y1="28.8417" x2="41.7271" y2="26.0424">
			<stop  offset="0" style="stop-color:#5D8BC5"/>
			<stop  offset="1" style="stop-color:#70A59E"/>
		</linearGradient>
		<path fill="url(#SVGID_10_)" d="M41.4,25.7c-0.4-0.2-1,0-1.3,0.5l-1,1.6c-0.3,0.5-0.2,1.1,0.2,1.3c0.4,0.2,1,0,1.3-0.5l1-1.6
			C41.8,26.5,41.7,25.9,41.4,25.7z"/>
	</g>
	<linearGradient id="SVGID_11_" gradientUnits="userSpaceOnUse" x1="3.1273" y1="76.3167" x2="64.9516" y2="14.4924">
		<stop  offset="0" style="stop-color:#5D8BC5"/>
		<stop  offset="1" style="stop-color:#70A59E"/>
	</linearGradient>
	<path opacity="0.2" fill-rule="evenodd" clip-rule="evenodd" fill="none" stroke="url(#SVGID_11_)" stroke-miterlimit="10" d="
		M9.1,17.1L0,72l70.9-10.3L80,30.3L32.9,0L9.1,17.1z"/>
</g>
</svg>
