<?xml version="1.0" encoding="utf-8"?>
<!-- Generator: Adobe Illustrator 18.0.0, SVG Export Plug-In . SVG Version: 6.00 Build 0)  -->
<!DOCTYPE svg PUBLIC "-//W3C//DTD SVG 1.1//EN" "http://www.w3.org/Graphics/SVG/1.1/DTD/svg11.dtd">
<svg version="1.1" id="Слой_1" xmlns="http://www.w3.org/2000/svg" xmlns:xlink="http://www.w3.org/1999/xlink" x="0px" y="0px"
	 viewBox="0 0 128.4 121.4" enable-background="new 0 0 128.4 121.4" xml:space="preserve">
<polyline fill="#FFFFFF" points="88.9,1.1 0,33.9 24.1,121.4 103.4,110.2 128.4,56.3 "/>
<g>
	<linearGradient id="SVGID_1_" gradientUnits="userSpaceOnUse" x1="13.2254" y1="110.5621" x2="105.8079" y2="17.9796">
		<stop  offset="0" style="stop-color:#5D8BC5"/>
		<stop  offset="1" style="stop-color:#70A59E"/>
	</linearGradient>
	<path fill="url(#SVGID_1_)" d="M24.1,121.4L0,33.9L88.9,1.1l39.4,55.2l-25,53.9L24.1,121.4z M2.4,35.2l23.1,84l76.5-10.8l24-51.8
		l-37.9-53L2.4,35.2z"/>
</g>
<linearGradient id="SVGID_2_" gradientUnits="userSpaceOnUse" x1="46.6779" y1="82.3409" x2="85.4329" y2="43.5859">
	<stop  offset="0" style="stop-color:#C86467"/>
	<stop  offset="1" style="stop-color:#DBA954"/>
</linearGradient>
<path fill="url(#SVGID_2_)" d="M61.5,84.4c-6.2,0-12.8-1.5-17.8-5l-0.2-0.2l-2-2.4c-0.4-0.4-0.3-1.1,0.1-1.4C42,75,42.6,75,43,75.5
	l1.9,2.3c7.5,5.2,18.9,5.6,26,3.2c5.4-1.8,11.2-4.5,13.2-5.4c-0.1-0.9,0-2.5,0.6-5.2c0.8-3.4,0.4-6.8-0.4-12.5
	c-0.2-1.6-0.5-3.4-0.7-5.4c-0.9-7.1-2.4-9.1-4.2-11.4c-0.4-0.6-0.9-1.2-1.4-1.9c-2-3-6.1-4.1-8.3-4.1c-0.6,0-1.3-0.2-2-0.4
	c-2.5-0.7-5-1.5-7,4.3c-0.4,1.1-0.7,2.6,0,3.4c1.5,1.7,7.1,0.3,9.3-0.3c1.2-0.3,2.7-0.5,3.7,0.4c1.1,1.1,0.6,3.1-0.1,5.7
	c-0.2,0.6-0.3,1.3-0.5,2c-0.6,2.4-0.6,5.7-0.5,8.5c0,3.8,0,5.6-0.8,6.4c-0.8,0.8-3.2,0.9-4.4,0.8l-0.3,0l-0.3-0.2
	c-1-0.8-1.7-3-1.9-3.9c-4.7-3.7-8.2-3.7-11.7-0.2c-2.9,2.9-4.2,3.3-4.7,3.3h-4.1c-0.6,0-1-0.4-1-1c0-0.6,0.4-1,1-1h4
	c0.2-0.1,1.2-0.5,3.4-2.7c4.4-4.4,9-4.3,14.7,0.2l0.3,0.2l0.1,0.3c0.3,1.1,0.8,2.4,1.2,3c1.1,0,2.2-0.1,2.5-0.3
	c0.3-0.6,0.3-3.1,0.3-5c0-3,0-6.4,0.6-9c0.2-0.7,0.4-1.4,0.5-2.1c0.4-1.4,0.9-3.5,0.6-3.8c0,0-0.3-0.2-1.7,0.1
	c-4.6,1.2-9.2,1.9-11.2-0.3c-1.1-1.2-1.2-3-0.4-5.4c2.6-7.5,7.1-6.2,9.5-5.5c0.6,0.2,1.1,0.3,1.5,0.3c2.7,0,7.5,1.3,9.9,5
	c0.4,0.6,0.9,1.2,1.3,1.8c1.9,2.4,3.6,4.7,4.6,12.3c0.2,2,0.5,3.8,0.7,5.4c0.8,5.7,1.3,9.5,0.4,13.2c-0.9,3.4-0.6,4.6-0.5,4.8
	L85.7,77c-0.1,0-7.3,3.6-14.1,5.9C68.7,83.8,65.2,84.4,61.5,84.4z"/>
</svg>
