<?xml version="1.0" encoding="utf-8"?>
<!-- Generator: Adobe Illustrator 18.0.0, SVG Export Plug-In . SVG Version: 6.00 Build 0)  -->
<!DOCTYPE svg PUBLIC "-//W3C//DTD SVG 1.1//EN" "http://www.w3.org/Graphics/SVG/1.1/DTD/svg11.dtd">
<svg version="1.1" id="Слой_1" xmlns="http://www.w3.org/2000/svg" xmlns:xlink="http://www.w3.org/1999/xlink" x="0px" y="0px"
	 viewBox="0 0 132.4 135.8" enable-background="new 0 0 132.4 135.8" xml:space="preserve">
<g opacity="0.3">
	<linearGradient id="SVGID_1_" gradientUnits="userSpaceOnUse" x1="50.3938" y1="74.5486" x2="79.5368" y2="45.4056">
		<stop  offset="0" style="stop-color:#5D8BC5"/>
		<stop  offset="1" style="stop-color:#70A59E"/>
	</linearGradient>
	<path fill="url(#SVGID_1_)" d="M65,76.8c-0.7,0-16,0-16-4.4v-2.2c0-2.4,1.3-4.5,3.4-5.7l6.1-3.3c0.5-0.3,0.8-0.8,0.8-1.3v-2.1
		c-0.5-0.7-1.7-2.5-2.3-4.9c-0.7-0.6-1.1-1.4-1.1-2.3v-2.7c0-0.7,0.2-1.4,0.7-1.9v-3.5c0-0.5-0.2-2.8,1.5-4.7c1.5-1.7,3.8-2.5,7-2.5
		c3.2,0,5.5,0.8,7,2.5c1.7,1.9,1.5,4.2,1.5,4.7V46c0.4,0.5,0.7,1.2,0.7,1.9v2.7c0,1.2-0.6,2.2-1.6,2.7c-0.5,1.4-1.2,2.7-2,3.9
		c-0.2,0.2-0.3,0.4-0.4,0.6V60c0,0.6,0.3,1.1,0.8,1.3l6.5,3.2c2.2,1.1,3.6,3.3,3.6,5.8v2.1C80.9,76.7,65.6,76.8,65,76.8z M65,37.3
		c-2.6,0-4.4,0.6-5.5,1.8c-1.2,1.4-1,3.1-1,3.2l0,0.1v4.4l-0.3,0.3c-0.2,0.2-0.4,0.5-0.4,0.8v2.7c0,0.4,0.2,0.7,0.5,0.9l0.3,0.2
		l0.1,0.4c0.6,2.7,2.2,4.7,2.3,4.7l0.2,0.3v2.8c0,1.3-0.7,2.4-1.8,3.1l-6.1,3.3C51.9,67,51,68.5,51,70.2v2.2c0.4,0.8,5.4,2.4,14,2.4
		s13.6-1.6,14-2.5l0-2c0-1.7-0.9-3.2-2.5-4L70,63.1C68.8,62.5,68,61.3,68,60V57l0.2-0.3c0.2-0.2,0.4-0.4,0.6-0.7
		c0.8-1.1,1.4-2.4,1.9-3.8l0.2-0.5l0.5-0.2c0.4-0.1,0.7-0.5,0.7-1v-2.7c0-0.3-0.1-0.6-0.4-0.8l-0.3-0.3l0-4.5c0,0,0.2-1.8-1-3.2
		C69.4,37.9,67.5,37.3,65,37.3z"/>
</g>
<linearGradient id="SVGID_2_" gradientUnits="userSpaceOnUse" x1="9.7912" y1="114.592" x2="112.8997" y2="11.4835">
	<stop  offset="0" style="stop-color:#5D8BC5"/>
	<stop  offset="1" style="stop-color:#70A59E"/>
</linearGradient>
<path opacity="0.2" fill-rule="evenodd" clip-rule="evenodd" fill="none" stroke="url(#SVGID_2_)" stroke-miterlimit="10" d="
	M52.5,0L0,43.8l32,92l100.4-63.3L117,16.4L52.5,0z"/>
</svg>
