<?xml version="1.0" encoding="utf-8"?>
<!-- Generator: Adobe Illustrator 18.0.0, SVG Export Plug-In . SVG Version: 6.00 Build 0)  -->
<!DOCTYPE svg PUBLIC "-//W3C//DTD SVG 1.1//EN" "http://www.w3.org/Graphics/SVG/1.1/DTD/svg11.dtd">
<svg version="1.1" id="Слой_1" xmlns="http://www.w3.org/2000/svg" xmlns:xlink="http://www.w3.org/1999/xlink" x="0px" y="0px"
	 viewBox="0 405.3 595.3 31.3" enable-background="new 0 405.3 595.3 31.3" xml:space="preserve">
<polygon fill="#FFFFFF" points="-3.5,419 99.4,436.6 255.4,413.2 457.6,424.9 603.2,405.3 -3.5,405.3 "/>
</svg>
