<?xml version="1.0" encoding="utf-8"?>
<!-- Generator: Adobe Illustrator 18.0.0, SVG Export Plug-In . SVG Version: 6.00 Build 0)  -->
<!DOCTYPE svg PUBLIC "-//W3C//DTD SVG 1.1//EN" "http://www.w3.org/Graphics/SVG/1.1/DTD/svg11.dtd">
<svg version="1.1" id="Rectangle_17_copy_5_xA0_Изображение_1_"
	 xmlns="http://www.w3.org/2000/svg" xmlns:xlink="http://www.w3.org/1999/xlink" x="0px" y="0px" viewBox="0 0 54.5 158.9"
	 enable-background="new 0 0 54.5 158.9" xml:space="preserve">
<linearGradient id="SVGID_1_" gradientUnits="userSpaceOnUse" x1="-27.25" y1="176.3613" x2="51.75" y2="97.3613">
	<stop  offset="0" style="stop-color:#F3AC44"/>
	<stop  offset="1" style="stop-color:#ED6066"/>
</linearGradient>
<rect x="10.8" y="59.4" fill="url(#SVGID_1_)" width="3" height="155"/>
<linearGradient id="SVGID_2_" gradientUnits="userSpaceOnUse" x1="2.75" y1="175.8613" x2="81.75" y2="96.8613">
	<stop  offset="0" style="stop-color:#F3AC44"/>
	<stop  offset="1" style="stop-color:#ED6066"/>
</linearGradient>
<rect x="40.8" y="58.9" fill="url(#SVGID_2_)" width="3" height="155"/>
<g id="Page-1_2_">
	<g id="_x34_8---Spaceship-Launch-Pad-_x28_Outline_x29_" transform="translate(1.000000, 1.000000)">
		<g id="Stroke-118">
			<linearGradient id="SVGID_3_" gradientUnits="userSpaceOnUse" x1="4.5024" y1="58.6895" x2="47.9975" y2="15.1945">
				<stop  offset="0" style="stop-color:#ED6066"/>
				<stop  offset="1" style="stop-color:#F3AC44"/>
			</linearGradient>
			<path fill="url(#SVGID_3_)" d="M47.3,58.9h-12c-0.5,0-1-0.3-1.2-0.8c-0.2-0.4-0.2-0.8,0-1.2l1.3-5.2c0.1-0.4,0.5-0.8,1-0.8h10
				c0.5,0,0.9,0.3,1,0.8l1.3,5.2c0.2,0.4,0.2,0.8,0,1.2C48.3,58.6,47.8,58.9,47.3,58.9z M36.1,56.9h10.4l-1-4H37L36.1,56.9z
				 M17.3,58.9h-12c-0.5,0-1-0.3-1.2-0.8c-0.2-0.4-0.2-0.8,0-1.2l1.3-5.2c0.1-0.4,0.5-0.8,1-0.8h10c0.5,0,0.9,0.3,1,0.8l1.3,5.2
				c0.2,0.4,0.2,0.8,0,1.2C18.3,58.6,17.8,58.9,17.3,58.9z M6.1,56.9h10.4l-1-4H7L6.1,56.9z M46.3,15.9h-10c-0.6,0-1-0.4-1-1
				c0-0.6,0.4-1,1-1h10c0.6,0,1,0.4,1,1C47.3,15.4,46.8,15.9,46.3,15.9z M16.3,15.9h-10c-0.6,0-1-0.4-1-1c0-0.6,0.4-1,1-1h10
				c0.6,0,1,0.4,1,1C17.3,15.4,16.8,15.9,16.3,15.9z"/>
		</g>
		<g id="Stroke-119">
			<linearGradient id="SVGID_4_" gradientUnits="userSpaceOnUse" x1="24.5429" y1="51.5293" x2="27.9571" y2="48.1152">
				<stop  offset="0" style="stop-color:#ED6066"/>
				<stop  offset="1" style="stop-color:#F3AC44"/>
			</linearGradient>
			<path fill="url(#SVGID_4_)" d="M26.3,52.8c-0.6,0-1-0.4-1-1v-4c0-0.6,0.4-1,1-1c0.6,0,1,0.4,1,1v4C27.3,52.4,26.8,52.8,26.3,52.8
				z"/>
		</g>
		<g id="Stroke-120">
			<linearGradient id="SVGID_5_" gradientUnits="userSpaceOnUse" x1="4.1857" y1="56.2111" x2="48.3145" y2="12.0823">
				<stop  offset="0" style="stop-color:#ED6066"/>
				<stop  offset="1" style="stop-color:#F3AC44"/>
			</linearGradient>
			<path fill="url(#SVGID_5_)" d="M51.3,52.9h-50c-0.6,0-1-0.4-1-1v-2c0-0.3,0.1-0.5,0.3-0.7l4.7-4.7V15.7c0-3.9,2.1-7.7,5.5-9.7
				c0.3-0.2,0.7-0.2,1,0c2,1.2,3.5,3,4.5,5c1.5-4.8,4.7-9,9.1-11.8c0.6-0.4,1.3-0.4,1.9,0c4.4,2.8,7.6,7,9.1,11.8
				c0.9-2.1,2.5-3.8,4.5-5c0.3-0.2,0.7-0.2,1,0c3.4,2,5.5,5.7,5.5,9.7v28.8l4.7,4.7c0.1,0.1,0.2,0.2,0.2,0.3c0,0.1,0.1,0.2,0.1,0.4
				l0,0c0,0,0,0,0,0v2C52.3,52.4,51.8,52.9,51.3,52.9z M34.3,50.9h16v-0.6l-1.4-1.4H34.3V50.9z M20.3,50.9h12V49l-1.9-4.8
				c0-0.1,0-0.1-0.1-0.2c0-0.1,0-0.1,0-0.2c0,0,0,0,0,0v-26c0-2.9-1.1-5.6-3.2-7.6c-0.5-0.5-1.2-0.5-1.7,0c-2,2-3.2,4.7-3.2,7.6v26
				c0,0.1,0,0.3-0.1,0.4l-1.6,4c0,0,0,0,0,0L20.3,49V50.9z M2.3,50.9h16v-2H3.7l-1.4,1.4V50.9z M33.5,46.9h13.3L32.3,32.3v11.4
				L33.5,46.9z M5.7,46.9H19l1.3-3.2V32.3L5.7,46.9z M37.3,34.4l8,8V15.7c0-3-1.5-5.9-4-7.6c-2.5,1.7-4,4.6-4,7.6V34.4z M11.3,8.1
				c-2.5,1.7-4,4.6-4,7.6v26.8l8-8V15.7C15.3,12.6,13.7,9.8,11.3,8.1z M32.3,29.4l3,3V17.5c0-6.7-3.4-12.9-9-16.5
				c-5.6,3.6-9,9.8-9,16.5v14.9l3-3V17.8c0-3.4,1.3-6.6,3.7-9c1.2-1.2,3.3-1.2,4.5,0c2.4,2.4,3.7,5.6,3.7,9V29.4z"/>
		</g>
		<g id="Stroke-121">
			<linearGradient id="SVGID_6_" gradientUnits="userSpaceOnUse" x1="17.3363" y1="39.3618" x2="35.1638" y2="21.5344">
				<stop  offset="0" style="stop-color:#ED6066"/>
				<stop  offset="1" style="stop-color:#F3AC44"/>
			</linearGradient>
			<path fill="url(#SVGID_6_)" d="M28.3,45.9c-0.6,0-1-0.4-1-1v-3c0-0.6,0.4-1,1-1c0.6,0,1,0.4,1,1v3C29.3,45.4,28.8,45.9,28.3,45.9
				z M24.3,45.9c-0.6,0-1-0.4-1-1v-3c0-0.6,0.4-1,1-1c0.6,0,1,0.4,1,1v3C25.3,45.4,24.8,45.9,24.3,45.9z M28.3,19.9h-4
				c-0.6,0-1-0.4-1-1v-2c0-1.7,1.3-3,3-3c1.7,0,3,1.3,3,3v2C29.3,19.4,28.8,19.9,28.3,19.9z M25.3,17.9h2v-1c0-0.6-0.4-1-1-1
				c-0.6,0-1,0.4-1,1V17.9z"/>
		</g>
		<g id="Stroke-122">
			<linearGradient id="SVGID_7_" gradientUnits="userSpaceOnUse" x1="22.5429" y1="57.5681" x2="29.9571" y2="50.1539">
				<stop  offset="0" style="stop-color:#ED6066"/>
				<stop  offset="1" style="stop-color:#F3AC44"/>
			</linearGradient>
			<path fill="url(#SVGID_7_)" d="M31.3,55.9h-10c-0.3,0-0.6-0.2-0.8-0.4c-0.2-0.3-0.2-0.6-0.1-0.9l1-3c0.1-0.4,0.5-0.7,0.9-0.7h8
				c0.4,0,0.8,0.3,0.9,0.7l1,3c0.1,0.3,0,0.6-0.1,0.9C31.9,55.7,31.6,55.9,31.3,55.9z M22.6,53.9h7.2l-0.3-1H23L22.6,53.9z"/>
		</g>
	</g>
</g>
</svg>
