<?xml version="1.0" encoding="utf-8"?>
<!-- Generator: Adobe Illustrator 16.0.0, SVG Export Plug-In . SVG Version: 6.00 Build 0)  -->
<!DOCTYPE svg PUBLIC "-//W3C//DTD SVG 1.0//EN" "http://www.w3.org/TR/2001/REC-SVG-20010904/DTD/svg10.dtd" [
	<!ENTITY ns_flows "http://ns.adobe.com/Flows/1.0/">
	<!ENTITY ns_extend "http://ns.adobe.com/Extensibility/1.0/">
	<!ENTITY ns_ai "http://ns.adobe.com/AdobeIllustrator/10.0/">
	<!ENTITY ns_graphs "http://ns.adobe.com/Graphs/1.0/">
]>
<svg version="1.0" id="Слой_1" xmlns:x="&ns_extend;" xmlns:i="&ns_ai;" xmlns:graph="&ns_graphs;"
	 xmlns="http://www.w3.org/2000/svg" xmlns:xlink="http://www.w3.org/1999/xlink" xmlns:a="http://ns.adobe.com/AdobeSVGViewerExtensions/3.0/"
	 x="0px" y="0px" width="303.6005859px" height="64px" viewBox="219.8994141 46.7441406 303.6005859 346.7558594"
	 enable-background="new 219.8994141 46.7441406 303.6005859 346.7558594" xml:space="preserve">
<path fill="#fff" d="M523.2363281,294.7714844l-20.5771484,56.4033203c-0.6513672,1.7753906-2.4365234,3.2128906-4.8115234,3.8613281
	c-0.8955078,0.2451172-1.8378906,0.3671875-2.7714844,0.3671875c-1.5302734,0-3.0556641-0.328125-4.3583984-0.9599609
	l-41.9892578-20.3525391c-2.3125-1.1210938-3.6386719-3.0458984-3.4697266-5.0537109l1.1855469-14.6152344
	c-0.4150391,0.5214844-0.8017578,1.09375-1.2265625,1.5996094c-7.6875,9.1474609-16.4785156,16.8115234-25.8261719,22.8261719
	l-8.2480469-9.9238281c4.8583984-3.3222656,9.5332031-7.2509766,13.9511719-11.6191406H318.3310547
	c4.4501953,4.4013672,9.1601563,8.3554688,14.0537109,11.6943359l-8.2402344,9.9130859
	c-9.3876953-6.0253906-18.21875-13.7109375-25.9394531-22.8955078c-0.4345703-0.5175781-0.8291016-1.1025391-1.2548828-1.6367188
	l1.1894531,14.6572266c0.1689453,2.0078125-1.15625,3.9326172-3.4697266,5.0537109l-41.9892578,20.3515625
	c-1.3027344,0.6328125-2.828125,0.9609375-4.359375,0.9609375c-0.9326172,0-1.875-0.1220703-2.7714844-0.3671875
	c-2.3740234-0.6484375-4.1591797-2.0859375-4.8105469-3.8613281l-20.5771484-56.4052734
	c-0.5292969-1.4414063-0.2529297-2.9736328,0.7666016-4.2675781l45.0078125-57.2236328
	c0.8935547-1.1386719,2.3007813-1.9931641,3.9472656-2.4628906c-0.6650391-13.0634766,0.0048828-25.8583984,2.1298828-37.3427734
	C291.2421875,89.6054688,363.8125,50.2734375,366.8974609,47.9199219c1.0019531-0.7587891,2.2275391-1.1757813,3.4921875-1.1757813
	h2.6494141c1.265625,0,2.4902344,0.4169922,3.4990234,1.1757813c3.0791016,2.3535156,75.6435547,41.6855469,94.8759766,145.5527344
	c2.1259766,11.4863281,2.7949219,24.2851563,2.1289063,37.3535156c1.6337891,0.4716797,3.0302734,1.3212891,3.9199219,2.4521484
	l45.0068359,57.2236328C523.4902344,291.7958984,523.765625,293.328125,523.2363281,294.7714844z M280.1816406,283.3369141
	c-3.9365234-10.7929688-6.7792969-22.5009766-8.5214844-34.3779297l-35.5136719,45.1513672l16.9462891,46.4619141l29.125-14.1152344
	l-3.2304688-39.8925781C278.8896484,285.3837891,279.3876953,284.2900391,280.1816406,283.3369141z M371.7167969,60.0615234
	c-16.2441406,10.9472656-43.7832031,34.0341797-63.8759766,73.9726563
	c18.2001953,2.5185547,38.2587891,4.0039063,59.9384766,4.0039063c23.6845703,0,46.3769531-1.8427734,67.2587891-5.1416016
	C414.9960938,93.6455078,387.8046875,70.9091797,371.7167969,60.0615234z M455.8476563,194.9824219
	c-3.6083984-19.4804688-9.1513672-36.5859375-15.7900391-51.5683594c-22.0625,3.5947266-46.453125,5.6582031-72.2783203,5.6582031
	c-22.9726563,0-44.7773438-1.6582031-64.8710938-4.5410156c-6.4238281,14.7226563-11.8056641,31.4384766-15.3261719,50.4511719
	c-7.3203125,39.5458984,3.0966797,89.7636719,23.7177734,114.703125h120.828125
	C452.7490234,284.7402344,463.1679688,234.5263672,455.8476563,194.9824219z M471.7636719,248.9882813
	c-1.7451172,11.8759766-4.5908203,23.5810547-8.5283203,34.3730469c0.7822266,0.9482422,1.2734375,2.03125,1.1757813,3.203125
	l-3.2304688,39.8925781l29.125,14.1152344l16.9482422-46.4619141L471.7636719,248.9882813z M347.8398438,332.5429688
	c2.9404297,0,5.3222656,1.7060547,5.3222656,3.8105469v38.0966797c0,2.1054688-2.3818359,3.8095703-5.3222656,3.8095703
	c-2.9414063,0-5.3242188-1.7041016-5.3242188-3.8095703v-38.0966797
	C342.515625,334.2490234,344.8984375,332.5429688,347.8398438,332.5429688z M374.4570313,332.5429688
	c2.9404297,0,5.3242188,1.7060547,5.3242188,3.8105469v22.859375c0,2.1025391-2.3837891,3.8095703-5.3242188,3.8095703
	c-2.9394531,0-5.3232422-1.7070313-5.3232422-3.8095703v-22.859375
	C369.1337891,334.2490234,371.5175781,332.5429688,374.4570313,332.5429688z M401.0751953,332.5429688
	c2.9404297,0,5.3232422,1.7060547,5.3232422,3.8105469v53.3369141c0,2.1035156-2.3828125,3.8095703-5.3232422,3.8095703
	s-5.3242188-1.7060547-5.3242188-3.8095703v-53.3369141C395.7509766,334.2490234,398.1357422,332.5429688,401.0751953,332.5429688z"
	/>
<path fill="#fff" d="M374.6835938,271.8955078c-10.9560547,0-21.0400391-5.3378906-28.3935547-15.03125
	c-6.8300781-9.0009766-10.5908203-20.8789063-10.5908203-33.4482422s3.7607422-24.4462891,10.5908203-33.4482422
	c7.3535156-9.6933594,17.4375-15.03125,28.3935547-15.03125s21.0400391,5.3378906,28.3935547,15.03125
	c6.8300781,9.0019531,10.5908203,20.8808594,10.5908203,33.4482422c0,12.5693359-3.7607422,24.4472656-10.5908203,33.4482422
	C395.7226563,266.5576172,385.6396484,271.8955078,374.6835938,271.8955078z M374.6835938,183.3466797
	c-15.2861328,0-28.2001953,18.3505859-28.2001953,40.0693359c0,21.7207031,12.9140625,40.0703125,28.2001953,40.0703125
	s28.2001953-18.3496094,28.2001953-40.0703125C402.8837891,201.6972656,389.9697266,183.3466797,374.6835938,183.3466797z"/>
</svg>
