<?xml version="1.0" encoding="utf-8"?>
<!-- Generator: Adobe Illustrator 16.0.0, SVG Export Plug-In . SVG Version: 6.00 Build 0)  -->
<!DOCTYPE svg PUBLIC "-//W3C//DTD SVG 1.0//EN" "http://www.w3.org/TR/2001/REC-SVG-20010904/DTD/svg10.dtd" [
	<!ENTITY ns_flows "http://ns.adobe.com/Flows/1.0/">
	<!ENTITY ns_extend "http://ns.adobe.com/Extensibility/1.0/">
	<!ENTITY ns_ai "http://ns.adobe.com/AdobeIllustrator/10.0/">
	<!ENTITY ns_graphs "http://ns.adobe.com/Graphs/1.0/">
]>
<svg version="1.0" id="Слой_1" xmlns:x="&ns_extend;" xmlns:i="&ns_ai;" xmlns:graph="&ns_graphs;"
	 xmlns="http://www.w3.org/2000/svg" xmlns:xlink="http://www.w3.org/1999/xlink" xmlns:a="http://ns.adobe.com/AdobeSVGViewerExtensions/3.0/"
	 x="0px" y="0px" width="332.3603516px" height="64" viewBox="-103.6347656 -85.9682617 332.3603516 294.2426758"
	 enable-background="new -103.6347656 -85.9682617 332.3603516 294.2426758" xml:space="preserve">
<g transform="translate(0.000000,127.000000) scale(0.100000,-0.100000)">
	<path fill="#fff" d="M-456.3475952,2108.6179199c-88.0078125-15.9960938-255.9960938-72.0115967-371.9921875-124.0037842
		l-208.0077515-91.9921875l8.0078125-1224.0039063c11.9921875-1060.0047607,20-1223.9891357,71.9921875-1215.9813232
		c31.9921875,3.984375,159.999939,40,279.999939,75.9765625c315.9960327,96.015625,764.0038452,88.0078125,1071.9921875-20
		c188.0076904-63.984375,268.0076904-75.9765625,328.0076904-43.984375
		c43.984375,23.984375,216.015625,68.0078125,383.984375,103.984375c256.015625,52.03125,348.0078125,56.015625,572.03125,16.015625
		c143.984375-28.0078125,320-71.9921875,387.9688721-100c92.03125-40,140-40,172.03125-8.0078125
		c67.96875,68.0078125,60,2311.9968262-4.0234375,2399.9851074c-75.9765625,100-388.0079346,216.0155029-651.9923096,244.0037842
		c-260,28.0078125-491.9921875-7.9882813-783.984375-119.9998779
		c-184.0234375-67.9882813-192.0117188-67.9882813-396.0155029,15.9960938
		C171.6601563,2112.6218262-212.34375,2152.6218262-456.3475952,2108.6179199z M375.6445313,1912.6219482l188.0078125-84.0039063
		v-1100c0-675.9813843-15.9960938-1107.9735107-40-1123.9891357c-20-11.9921875-75.9960938-3.984375-120,20
		c-191.9921875,103.9843445-964.0038452,88.007782-1248.0078125-20c-67.9882202-28.0078125-71.9921265,40-71.9921265,1095.9813232
		v1120l119.999939,64.0039063C-488.3397827,2044.6141357,43.6523438,2056.6064453,375.6445313,1912.6219482z
		 M1739.6678467,1984.6141357c95.9765625-35.9960938,103.984375-60,103.984375-264.0039063
		c0-280,91.9921875-284.0039063,111.9921875-4.0039063c11.9921875,204.0039063,16.015625,208.0078125,131.9923096,148.0078125
		c72.03125-40,76.015625-95.9960938,76.015625-1135.9960938c0-600.0048218-8.0078125-1100.0047607-20-1111.9969482
		s-123.9844971,4.0234375-251.9923096,31.9921875c-348.0078125,84.023407-860,64.023407-1136.015625-43.984375
		c-68.0078125-28.0078125-71.9921875,40-71.9921875,1091.977417c0,879.999939,11.9921875,1128.0078125,51.9921875,1164.0039063
		C887.6365967,1984.6141357,1527.6365967,2064.6142578,1739.6678467,1984.6141357z"/>
	<path fill="#fff" d="M-604.3554077,1336.6063232c-63.984375-20-111.9921875-67.9882813-111.9921875-100
		c0-40,24.0039063-51.9921875,71.9921875-31.9921875c252.0116577,95.9960938,548.0077515,104.0039063,924.0038452,11.9921875
		c115.9960938-27.9882813,80,80-40,124.0039063C83.6523438,1392.6219482-456.3475952,1392.6219482-604.3554077,1336.6063232z"/>
	<path fill="#fff" d="M-492.343689,852.6220093c-260-64.0039063-312.0117188-172.0117188-60-124.0039063
		c219.999939,44.0039063,571.9921265,44.0039063,767.9882202,0c184.0039063-40,204.0039063,27.9882813,20,91.9921875
		C35.6445313,892.6220093-280.3515625,904.6141968-492.343689,852.6220093z"/>
	<path fill="#fff" d="M-552.343689,328.6132813c-180-63.984375-228.0078125-171.9921875-60-123.984375
		c147.9882813,43.984375,724.0038452,43.984375,871.9921265,0c88.0078125-23.984375,112.0117188-20,95.9960938,20
		C327.65625,308.6132813,87.65625,376.6210938-176.3476563,376.6210938
		C-308.3398438,376.6210938-476.3475952,356.6210938-552.343689,328.6132813z"/>
	<path fill="#fff" d="M1015.6444092,1340.6102295c-71.9921875-20-131.9921875-64.0039063-131.9921875-95.9960938
		c0-71.9921875,3.984375-71.9921875,143.984375-20c148.0078125,55.9960938,608.0078125,55.9960938,752.03125,0
		c80-28.0078125,131.9921875-28.0078125,155.9765625-4.0039063
		C2059.6679688,1344.6141357,1343.6522217,1436.6063232,1015.6444092,1340.6102295z"/>
	<path fill="#fff" d="M1107.6365967,852.6220093c-107.96875-28.0078125-203.984375-72.0117188-215.9765625-104.0039063
		c-16.015625-44.0039063,11.9921875-48.0078125,135.9765625-20c192.03125,44.0039063,584.0234375,40,796.015625-4.0039063
		c143.984375-28.0078125,156.015625-28.0078125,108.0078125,31.9921875c-51.9921875,64.0039063-380,152.0117188-540,144.0039063
		C1343.6522217,900.6102905,1215.6444092,876.6063843,1107.6365967,852.6220093z"/>
	<path fill="#fff" d="M1047.6365967,328.6132813c-175.9765625-63.984375-227.96875-171.9921875-60-120
		c140,44.0234375,712.03125,40,872.03125-3.984375c87.96875-23.984375,111.9921875-20,95.9765625,20
		c-28.0078125,83.984375-268.0078125,151.9921875-531.9921875,151.9921875
		C1291.6600342,376.6210938,1123.6522217,356.6210938,1047.6365967,328.6132813z"/>
	<path fill="#fff" d="M-536.3475952-571.3866577c-211.9921875-40-459.999939-147.96875-459.999939-200
		c0-55.9765015,4.0039063-55.9765015,228.0077515,24.0234375c260,95.9765625,955.9960327,95.9765625,1207.9882813,0
		c168.0076904-64.0233765,188.0076904-64.0233765,380.0194092,0c280,100,935.9765625,100,1175.9765625,3.984375
		c196.0157471-83.984314,248.0079346-88.0077515,248.0079346-31.9921875c0,23.984375-83.984375,80-188.0078125,128.0078125
		c-260.0001221,115.9765625-888.0079346,123.984375-1215.9766846,20
		c-208.0078125-68.0078125-236.015625-68.0078125-400.0194092-8.0078125
		C231.6601563-563.3788452-308.3398438-527.3632202-536.3475952-571.3866577z"/>
</g>
</svg>
